(\+?(375|8)[\s(-]?(025|25|029|29|033|33|044|44)[\s)-]?(\d[\s-]?){7})


80257559197
+375(25)7559197
375257559197
8(025)755 91 97
8(025)755-91-97
8 025 755 91 97
+375 25 755 91 97
375 44 55 66 777
8-033-1-222-333